0.271186	0.475564	1.33021	3.38649	14.2766
0.318267	0.601113	1.60264	4.2439	23.083
0.247655	0.605948	1.70113	3.75376	12.4353
0.317669	0.618692	1.26257	3.41264	22.834
0.299065	0.632959	1.38346	3.46828	10.8146
