0.249115	0.454552	0.835236	1.56114	4.27589
0.258114	0.405534	0.825784	1.85346	4.40599
0.26401		0.489637	0.808461	1.90452	3.61743
0.263805	0.428525	0.863744	1.6789	3.79859
0.242146	0.477647	0.841913	1.68047	5.10481

