00.000000 1207
00.020593 1724
00.030974 911
00.012835 1245
00.036810 1236
00.029355 595
00.009934 985
00.010752 311
00.000660 1681
00.014886 531
00.008012 362
00.014420 1576
00.013107 1137
00.064349 1406
00.013284 1424
00.020219 1640
00.028305 1065
00.023049 1476
00.034857 453
00.019521 501
00.032467 1064
00.056106 868
00.028787 1638
00.001620 1147
00.008761 1310
00.036524 1473
00.030575 670
00.059071 307
00.011684 500
00.085457 1432
00.010936 1455
00.003177 1577
00.013126 607
00.014772 713
00.030403 881
00.021241 1099
00.015297 685
00.054982 1303
00.021097 331
00.017970 1333
00.032058 656
00.036587 1088
00.002951 337
00.012365 625
00.055229 456
00.019150 990
00.007164 824
00.007658 1301
00.046777 1428
00.002368 1024
00.027563 1556
00.011561 531
00.028518 600
00.026405 1468
00.032261 876
00.103012 808
00.003982 846
00.004721 1324
00.019930 928
00.021319 794
00.030888 1279
00.018925 1443
00.001131 1372
00.001546 699
00.012303 1557
00.006957 887
00.007414 1058
00.026533 1011
00.026541 1728
00.084655 388
00.028708 537
00.000314 707
00.012027 596
00.047425 692
00.027386 1062
00.012783 982
00.006494 1461
00.011679 654
00.038926 965
00.002532 447
00.103200 346
00.020054 1353
00.009709 1115
00.008620 478
00.011585 1093
00.007933 782
00.027001 1052
00.084846 1049
00.005205 504
00.021390 1382
00.013775 1560
00.064945 516
00.008540 1075
00.010050 939
00.015834 997
00.060608 1361
00.049410 504
00.003053 1685
00.001206 469
00.000894 665
00.001948 1327
00.003126 1583
00.021211 601
00.004497 572
00.011787 1655
00.011514 1535
00.040529 1277
00.057582 1344
00.036724 881
00.051641 962
00.037404 619
00.013915 768
00.011951 1104
00.005728 1425
00.026316 1184
00.029476 1685
00.016984 360
00.032083 1592
00.025557 1096
00.017327 1171
00.014528 412
00.005942 1597
00.001320 1359
00.011034 1601
00.001147 1022
00.001352 1427
00.071233 1588
00.045475 823
00.015769 1575
00.027740 1492
00.006132 709
00.007505 1419
00.003393 941
00.109724 1682
00.002083 341
00.021336 587
00.028028 1311
00.020892 1033
00.026621 514
00.002437 1043
00.026023 1033
00.034316 782
00.001418 1214
00.001301 1278
00.050778 1741
00.013871 1094
00.016137 1235
00.038025 1479
00.009975 1072
00.002782 1551
00.047470 1106
00.071811 902
00.028976 829
00.031209 620
00.021149 646
00.006495 564
00.007215 1688
00.068800 1206
00.047422 447
00.015447 435
00.013232 1730
00.015059 610
00.012059 570
00.024889 1355
00.057597 1467
00.020166 721
00.021538 1552
00.007114 843
00.010950 598
00.003534 1552
00.059743 1244
00.041460 810
00.077911 551
00.007934 914
00.027567 978
00.034479 834
00.049620 1271
00.004429 1573
00.047289 1237
00.034754 417
00.012103 400
00.002237 1438
00.049431 1613
00.006059 1026
00.005961 1611
00.023313 1320
00.023089 1513
00.005570 1145
00.003115 690
00.035918 1202
00.006830 327
00.065495 850
00.015618 1048
00.011015 403
00.005848 1546
00.029811 1646
00.003178 1581
00.001379 625
00.004765 961
00.008378 1493
00.033196 1731
00.019300 1248
00.050431 1277
00.041534 1045
00.049472 1188
00.024708 1417
00.002352 412
00.029406 743
00.046674 1675
00.015236 1235
00.007505 1587
00.018513 1277
00.005594 322
00.024875 777
00.000394 1065
00.005412 1269
00.045970 509
00.038409 331
00.033146 1034
00.027363 1284
00.009062 1670
00.010757 439
00.019145 1196
00.001185 1517
00.012196 1353
00.040678 529
00.001140 1519
00.030211 1536
00.014390 994
00.007272 424
00.025766 1448
00.065387 917
00.003423 1550
00.001032 617
00.027891 284
00.024565 318
00.026736 706
00.004781 951
00.007579 1695
00.006997 1442
00.003391 1509
00.034874 1371
00.011933 675
00.025791 520
00.026306 1623
00.037840 1200
00.002157 1326
00.001482 567
00.014290 700
00.006306 432
00.009200 880
00.034782 1346
00.082255 1378
00.003017 1259
00.002670 935
00.007974 1160
00.010934 1224
00.013159 1247
00.013205 1028
00.036558 1608
00.011437 473
00.015632 1488
00.013153 1244
00.002394 1398
00.013077 570
00.007517 1069
00.020915 1743
00.040052 1015
00.023111 1681
00.005801 1555
00.019773 511
00.005971 578
00.004538 1315
00.062008 1058
00.018865 1133
00.021263 390
00.025173 1575
00.031730 1201
00.025895 1553
00.060739 510
00.001520 863
00.012483 627
00.001817 543
00.006810 1385
00.025359 1066
00.036148 828
00.043415 914
00.013859 801
00.061826 354
00.000264 1197
00.009123 685
00.037667 1313
00.068091 870
00.000260 298
00.025264 1519
00.024254 1257
00.024916 448
00.067288 1773
00.022430 1349
00.003352 1108
00.008076 1049
00.012469 841
00.018706 914
00.021327 724
00.047823 727
00.022947 504
00.034900 1699
00.009422 373
00.014455 880
00.015440 335
00.063718 896
00.011318 721
00.022721 768
00.019312 1341
00.011413 827
00.008288 522
00.011930 861
00.047989 306
00.016395 1087
00.039927 683
00.006022 1745
00.014958 651
00.007506 1661
00.001631 1272
00.013796 829
00.033505 1009
00.036047 521
00.028890 324
00.028560 1116
00.011779 1110
00.006010 1102
00.022004 1432
00.011841 370
00.007873 1522
00.013629 631
00.002611 1509
00.000937 1551
00.004867 1404
00.006277 1408
00.013439 782
00.006818 1747
00.023339 1391
00.013968 686
00.091783 671
00.011831 831
00.020029 1629
00.027694 581
00.035503 1597
00.015006 1614
00.006697 1070
00.039195 1067
00.041505 1288
00.058358 975
00.017291 1665
00.062771 1100
00.012084 1593
00.075539 1493
00.017718 1185
00.015322 595
00.039221 375
00.024465 917
00.024819 376
00.056772 426
00.011547 1362
00.002639 1284
00.032967 1601
00.016281 342
00.004439 862
00.031503 1210
00.001590 591
00.002808 753
00.022276 568
00.024011 1605
00.026092 346
00.005033 1742
00.029747 1195
00.011016 1069
00.005400 539
00.094506 1679
00.006995 1507
00.004309 825
00.007583 412
00.004816 1020
00.006216 1128
00.039962 660
00.000901 1460
00.050575 998
00.004634 1085
00.019836 1746
00.009482 1042
00.022921 1381
00.019437 1000
00.023262 703
00.004555 648
00.017947 1746
00.015865 309
00.020620 288
00.024511 1658
00.025067 1375
00.012755 782
00.025752 614
00.005708 310
00.021267 1214
00.007753 1478
00.015567 1386
00.064688 464
00.068133 1032
00.042606 1659
00.013588 1325
00.034832 965
00.008510 878
00.015460 916
00.007148 1706
00.009501 1635
00.014498 395
00.001159 742
00.008206 1410
00.001318 1375
00.048005 1401
00.017169 1124
00.012714 366
00.003687 1322
00.020754 382
00.021602 1666
00.023445 434
00.046348 289
00.031887 823
00.005439 495
00.013411 1626
00.002008 348
00.030596 1530
00.008132 1274
00.048174 1337
00.016554 1345
00.005614 1466
00.027231 1372
00.009985 764
00.016690 696
00.023904 1691
00.021183 763
00.019934 1692
00.062088 605
00.027732 1712
00.000796 1140
00.038043 1116
00.026545 449
00.023198 523
00.002943 1730
00.004076 1034
00.021863 1377
00.045181 1604
00.019291 957
00.006716 1353
00.034354 685
00.003429 1631
00.049763 1068
00.003669 1161
00.023476 576
00.034247 1181
00.041850 552
00.012585 1466
00.007220 1181
00.010118 818
00.003584 690
00.014810 1465
00.026505 925
00.035667 352
00.040654 415
00.036067 590
00.008538 537
00.020865 1004
00.011808 523
00.001437 1684
00.002263 345
00.046518 1275
00.000702 1038
00.025538 646
00.037628 580
00.001400 810
00.016742 1221
00.005079 1311
00.025634 1498
00.020581 1667
00.021344 297
00.001774 1228
00.036927 882
00.007447 581
00.013060 1382
00.055216 1128
00.000826 1698
00.013123 1108
00.077095 1761
00.001560 1094
00.007222 877
00.042177 1762
00.024772 1170
00.009008 1125
00.081053 791
00.026963 1219
00.016291 309
00.017800 930
00.001846 650
00.031805 806
00.006467 1364
00.021862 784
00.004980 407
00.011476 569
00.017772 661
00.075836 1648
00.011790 1653
00.009230 1086
00.005591 1483
00.044777 1332
00.001708 947
00.054626 822
00.050913 1428
00.010080 1077
00.005698 1592
00.005790 1435
00.013812 434
00.004151 1703
00.013139 1555
00.021485 512
00.001226 1361
00.009754 713
00.011489 1702
00.053404 620
00.026881 922
00.028971 635
00.005009 1515
00.025933 1391
00.018439 688
00.016426 1357
00.024641 936
00.001080 275
00.000024 629
00.003155 1329
00.009438 611
00.013514 822
00.069163 1374
00.002140 412
00.001574 1570
00.025621 1594
00.037011 284
00.012242 437
00.069424 297
00.012523 870
00.011213 1389
00.003882 1220
00.001440 1357
00.015688 1665
00.039288 661
00.003316 1270
00.011427 833
00.006888 1556
00.011931 1510
00.005428 1379
00.023149 650
00.029169 1577
00.014342 892
00.044708 1345
00.015991 282
00.004705 870
00.020144 1740
00.046472 421
00.026622 541
00.006855 292
00.015350 1529
00.018733 776
00.016550 1477
00.003641 1240
00.060125 1742
00.010693 1085
00.027439 287
00.006104 1410
00.012960 688
00.004644 1373
00.003550 591
00.003692 759
00.010941 1748
00.016602 734
00.026577 1273
00.001357 1071
00.004189 514
00.040658 1346
00.004885 1285
00.025081 1036
00.041182 997
00.008393 676
00.035569 518
00.013888 1322
00.001834 472
00.001081 1675
00.045058 290
00.057816 1320
00.003167 412
00.053604 833
00.016667 1392
00.016130 1585
00.001461 313
00.085410 1253
00.009534 501
00.013686 622
00.056619 1490
00.036432 939
00.005823 335
00.051233 431
00.005232 302
00.023313 591
00.022102 1462
00.023980 363
00.003037 1374
00.025324 737
00.054865 1752
00.000475 951
00.019452 855
00.004875 1099
00.044175 558
00.024299 978
00.044501 353
00.001805 336
00.005699 441
00.044592 1381
00.013051 1074
00.012017 556
00.025242 1035
00.054882 1138
00.020870 424
00.019236 1160
00.060444 1512
00.034103 634
00.040535 1683
00.019321 1549
00.037406 578
00.085244 597
00.009600 1475
00.030152 1649
00.034813 1121
00.016400 1580
00.007758 1632
00.006038 863
00.006569 1054
00.045743 592
00.023769 1195
00.032437 898
00.008139 1105
00.062894 678
00.035456 898
00.025232 1142
00.010756 722
00.012592 747
00.018514 1406
00.006099 297
00.003662 716
00.006136 471
00.020437 1628
00.014154 807
00.025168 1532
00.043589 957
00.026502 464
00.012450 1015
00.037152 320
00.045376 839
00.056361 1641
00.005997 983
00.007663 1301
00.009898 1392
00.001132 1224
00.075537 804
00.017000 1170
00.087442 521
00.018108 298
00.002165 320
00.000030 501
00.001235 777
00.047626 1075
00.005736 1681
00.018478 479
00.008281 930
00.026115 1672
00.026648 444
00.011191 658
00.012022 623
00.000363 762
00.037489 1253
00.007173 365
00.037307 355
00.025155 1769
00.013985 347
00.000274 1037
00.011706 745
00.014920 330
00.038815 511
00.002202 1114
00.025947 639
00.000880 852
00.022057 314
00.024202 1262
00.006204 1180
00.036808 714
00.044236 1713
00.001776 377
00.065914 887
00.093583 1660
00.035011 1537
00.017309 511
00.047858 1274
00.017023 957
00.007764 995
00.020607 1333
00.005002 812
00.016688 684
00.006274 1276
00.028127 984
00.033421 916
00.016160 791
00.001291 1494
00.009972 1629
00.004249 1536
00.014178 286
00.006204 607
00.006873 1326
00.010834 1673
00.014862 987
00.023817 1011
00.033820 1342
00.014906 437
00.053078 646
00.009757 989
00.001677 1482
00.021299 1273
00.003188 1078
00.015369 1090
00.009841 1681
00.004135 931
00.025216 1489
00.004537 1278
00.013725 1489
00.058329 1471
00.026927 590
00.007883 725
00.033972 355
00.003771 580
00.001509 482
00.010375 460
00.006127 306
00.023262 784
00.009582 896
00.012032 1523
00.002712 1318
00.018487 1667
00.009400 1665
00.008311 1392
00.047494 1140
00.017184 680
00.002018 1557
00.062838 1083
00.003273 1197
00.007331 1278
00.046757 1393
00.036909 1686
00.012745 1772
00.042571 1275
00.005015 1299
00.012725 306
00.021071 579
00.017811 992
00.023906 1492
00.011561 1314
00.023102 345
00.016072 1733
00.028582 340
00.093522 1685
00.004861 1649
00.020283 601
00.053469 965
00.059392 845
00.053754 481
00.050646 1619
00.015743 706
00.035930 1046
00.044621 1359
00.028286 1755
00.004353 1016
00.026371 1765
00.025055 425
00.012595 540
00.003414 415
00.023900 837
00.001253 308
00.019669 1377
00.035193 737
00.015167 1451
00.000385 1092
00.000998 852
00.003532 420
00.009344 1254
00.025897 1116
00.016098 1492
00.007554 840
00.003600 1249
00.008957 1603
00.008976 571
00.001796 871
00.001346 302
00.023789 1412
00.013920 670
00.015762 819
00.046693 1744
00.007842 1135
00.015127 943
00.005815 877
00.004372 1423
00.146303 1582
00.038312 1171
00.014807 1141
00.011377 1475
00.001339 1639
00.005069 1167
00.006752 507
00.028553 1486
00.029759 591
00.023928 985
00.029178 882
00.021804 716
00.057755 1742
00.015186 1253
00.024904 1086
00.058121 1763
00.008462 655
00.032793 1572
00.018421 697
00.005563 1571
00.011962 619
00.006971 880
00.054003 1559
00.036558 530
00.003129 315
00.035480 945
00.001545 1582
00.035628 1710
00.031699 1275
00.005077 964
00.076980 693
00.071534 1691
00.012320 554
00.008861 1007
00.005574 1664
00.001467 1007
00.063354 1663
00.034377 1567
00.007991 1420
00.037016 730
00.028593 1224
00.045963 1266
00.025111 1639
00.013947 1682
00.029425 1671
00.004732 971
00.030801 1514
00.024427 1758
00.017019 1666
00.005739 650
00.012762 1391
00.005386 1173
00.033732 1683
00.002892 898
00.006822 1744
00.004753 463
00.016539 474
00.001310 1320
00.032629 1695
00.016320 401
00.005411 299
00.000601 621
00.001392 902
00.043712 1376
00.000384 547
00.030808 1682
00.002001 1433
00.012843 444
00.008492 1378
00.078409 1100
00.000339 1274
00.044634 286
00.007776 1224
00.016963 1732
00.021333 844
00.010668 685
00.004418 575
00.005423 593
00.000431 1354
00.047165 404
00.005862 540
00.017229 465
00.022216 1116
00.000575 1167
00.038797 1513
00.037678 942
00.015084 596
00.023624 440
00.063218 1629
00.003802 1702
00.005530 1433
00.037639 986
00.008300 1362
00.002585 1453
00.016713 922
00.014144 859
00.004514 954
00.000784 735
00.043098 1010
00.009743 920
00.022037 621
00.007350 1503
00.003209 1603
00.001506 476
00.020231 513
00.007982 516
00.064782 600
00.050036 800
00.009875 1526
00.057472 1730
00.003684 462
00.054953 303
00.007980 756
00.019034 554
00.019968 1307
00.012417 308
00.025965 1333
00.028063 512
00.011088 1588
00.004059 757
00.006625 812
00.008300 1274
00.004721 1740
00.020206 971
00.024159 808
00.011807 1248
00.045275 922
00.007070 313
00.010515 722
00.032955 1230
00.002291 1504
00.005514 898
00.003249 1661
00.003873 1724
00.000192 280
00.048836 1281
00.063247 1377
00.045514 297
00.062902 711
00.010341 470
00.013317 795
00.031165 348
00.004485 343
00.024221 1229
00.031326 918
00.035129 513
00.032261 336
00.065896 1211
00.026774 1088
00.005387 902
00.044319 1608
00.014532 1610
00.021029 1117
00.006687 833
00.020739 1268
00.058543 1482
00.033311 741
00.007094 567
00.011574 790
00.007226 645
00.002548 885
00.004615 901
00.006127 1024
00.026925 368
00.036654 1190
00.001821 1434
00.025870 1263
00.026492 1623
00.038221 363
00.007658 1474
00.007751 380
00.020414 1020
00.014205 335
00.012555 1594
00.013454 282
00.038305 1486
00.028008 350
00.003394 1653
00.018241 303
00.075292 1345
00.023020 1293
00.003000 1070
00.034366 1228
00.041836 1193
00.012683 906
00.036851 927
00.006920 312
00.013493 1168
00.009966 1629
00.036879 781
00.053621 466
00.014367 432
00.000855 1523
00.046582 841
00.005594 1255
00.020260 1310
00.003305 763
00.006447 403
00.000532 281
00.005163 463
00.012046 1752
00.007337 826
00.043567 1249
00.006997 1690
00.022039 508
00.016411 1216
00.084882 276
00.002402 842
00.068866 1310
00.005397 441
00.006333 1750
00.014392 811
00.079102 1241
00.018888 547
00.006048 931
00.014829 382
00.056470 407
00.021699 1069
00.026067 1446
00.132165 1252
00.016205 877
00.023368 921
00.059810 618
00.004563 1767
00.013751 429
00.020191 1579
00.029649 449
00.051593 696
00.005665 1273
00.008973 1184
00.005564 764
00.001740 1385
00.018524 1135
00.015909 1354
00.044867 1184
00.023624 1366
00.001363 1216
00.016725 474
00.003298 603
00.030802 1234
00.001353 743
00.024810 1757
00.050316 1626
00.012747 1548
00.002125 757
00.039032 284
00.011327 1126
00.022374 1689
00.002358 1416
00.043205 291
00.001461 744
00.046206 460
00.033362 1248
00.025259 332
00.009917 1176
00.003986 1108
00.048846 1158
00.002981 1299
00.032176 960
00.005710 1103
00.019300 1678
00.001397 1197
00.004643 1280
00.108108 276
00.004679 1538
00.013894 789
00.009291 1452
00.072449 998
00.029662 429
00.016778 478
00.037662 510
00.001295 796
00.007374 1617
00.025678 523
00.036374 671
00.013941 1152
00.044029 400
00.006710 1760
00.059907 1047
00.005085 1735
00.002641 650
00.004060 716
00.017214 874
00.002912 742
00.004998 556
00.004214 953
00.009580 1144
00.095210 640
00.025738 654
00.034219 1183
00.002861 1305
00.019088 964
00.031941 1068
00.020380 968
00.002401 313
00.013170 668
00.009975 902
00.009440 673
00.003867 707
00.019588 1000
00.023327 995
00.022267 1500
00.053116 1630
00.030011 694
00.034126 1672
00.005728 280
00.030924 662
00.059636 1409
00.020469 1762
00.035796 606
00.021461 333
00.007190 793
00.018649 782
00.042360 1703
00.057218 691
00.048746 1656
00.021858 1282
00.047842 1748
00.023610 792
00.031584 1258
00.008227 1448
00.044575 1641
00.003053 550
00.004052 332
00.006726 1683
00.041415 1151
00.071498 1379
00.043778 635
00.006407 553
00.066593 809
00.021052 1220
00.000514 628
00.057752 471
00.035346 984
00.001585 1472
00.051289 1347
00.012894 1656
00.013299 1314
00.023199 1052
00.015049 764
00.003296 778
00.021438 289
00.036563 1487
00.004788 1488
00.018983 1355
00.008857 1094
00.022122 559
00.087897 1458
00.022342 1169
00.010918 601
00.007711 447
00.039785 727
00.047065 855
00.028952 1629
00.047479 966
00.006531 549
00.039975 856
00.018733 1233
00.032056 841
00.012277 1553
00.005040 604
00.004463 1010
00.008936 671
00.053631 647
00.032566 668
00.004076 1743
00.001153 1658
00.001131 957
00.117273 1454
00.022581 1284
00.051408 350
00.018989 472
00.011129 681
00.008628 663
00.017924 1137
00.076100 987
00.003170 698
00.000569 452
00.005942 1140
00.012307 873
00.001068 847
00.041664 962
00.004069 1037
00.048462 980
00.007904 1678
00.012531 476
00.011653 619
00.018630 1515
00.001474 966
00.020233 682
00.017125 1029
00.010419 916
00.001977 415
00.033654 418
00.002775 787
00.015348 902
00.022331 640
00.028477 1728
00.023210 349
00.013817 984
00.006376 1104
00.027415 274
00.053677 1275
00.060545 1368
00.008286 480
00.018331 1732
00.004542 1005
00.002753 720
00.063878 806
00.005721 1686
00.024440 1647
00.009801 1494
00.012468 566
00.002240 1215
00.094383 596
00.032873 1224
00.019162 1352
00.006313 1267
00.008406 339
00.026764 330
00.012535 1299
00.017683 620
00.004427 765
00.008424 363
00.022655 1506
00.033990 954
00.029387 1696
00.016523 428
00.055154 960
00.005348 737
00.012304 1368
00.006213 453
00.069762 649
00.057026 1365
00.015798 422
00.006575 1717
00.006111 1649
00.080111 708
00.001512 291
00.009473 1234
00.055470 1214
00.041932 391
00.026635 425
00.034832 1266
00.063499 342
00.015712 430
00.036135 1650
00.000698 750
00.004277 547
00.023887 1189
00.000732 382
00.007328 697
00.037265 1237
00.027016 763
00.000612 887
00.028199 975
00.007059 364
00.022740 506
00.031785 1423
00.015895 972
00.030249 278
00.000507 812
00.010295 1536
00.042528 1648
00.031233 552
00.009489 309
00.015774 1387
00.035364 1024
00.015806 1156
00.082610 1338
00.000177 1127
00.004097 906
00.062142 1160
00.020838 1364
00.032722 909
00.044160 961
00.000033 459
00.026843 1299
00.104475 1538
00.005617 1061
00.005347 591
00.015781 557
00.011388 1132
00.007760 1090
00.018377 1698
00.013063 1184
00.019850 293
00.016783 641
00.011299 1181
00.007239 401
00.015057 323
00.019464 829
00.027532 729
00.002049 615
00.031634 810
00.027303 337
00.003508 1639
00.004070 998
00.018175 671
00.016563 1384
00.000837 931
00.008105 1180
00.001790 1177
00.011492 1030
00.019436 352
00.011243 1113
00.001343 1687
00.036769 490
00.019491 752
00.005573 1003
00.000550 1294
00.031049 1118
00.001041 465
00.035641 718
00.004121 1150
00.006290 1507
00.049236 973
00.045569 377
00.008443 1472
00.076121 807
00.016278 1491
00.000047 632
00.006053 498
00.009437 752
00.009967 1105
00.024651 1372
00.037184 1110
00.019538 755
00.007568 358
00.012915 1531
00.025229 317
00.009361 1030
00.017415 1328
00.031083 502
00.026839 1345
00.020958 1377
00.016099 523
00.005970 1503
00.007524 714
00.022959 1194
00.003805 1288
00.010803 937
00.021857 1626
00.011576 898
00.000235 943
00.007821 949
00.053380 367
00.030204 1641
00.025177 596
00.014526 1006
00.027354 797
00.008686 366
00.049066 1535
00.008130 1389
00.008157 1411
00.031848 1313
00.001759 925
00.040327 609
00.009156 297
00.011324 538
00.027243 579
00.006436 410
00.020605 1348
00.076712 644
00.006047 1312
00.066709 1393
00.001963 363
00.042303 1599
00.015290 334
00.001562 1720
00.029457 1499
00.014006 1772
00.019646 1706
00.017599 1726
00.029275 607
00.000318 1505
00.041556 562
00.063625 1346
00.019027 1447
00.007864 523
00.016219 967
00.024234 979
00.007545 293
00.034224 1298
00.031879 1320
00.083987 1294
00.001018 1198
00.002485 1391
00.042379 1701
00.016925 1385
00.003868 467
00.003296 1734
00.019651 1748
00.044513 1097
00.004883 735
00.007922 953
00.018267 1077
00.012878 627
00.002659 275
00.044091 602
00.032599 436
00.036011 1537
00.026016 1559
00.068462 978
00.012461 1283
00.001113 574
00.035910 785
00.046847 1199
00.028541 1436
00.076693 1164
00.020716 1462
00.005277 1195
00.027403 1616
00.022400 680
00.032804 1441
00.008856 1563
00.070404 390
00.013071 1217
00.043375 1357
00.107761 922
00.012891 641
00.018010 435
00.001774 1661
00.038913 1564
00.010173 1317
00.002941 468
00.025637 1353
00.032549 1164
00.006270 766
00.005856 303
00.015970 1605
00.022098 1726
00.054161 303
00.014403 1540
00.019304 1170
00.001826 1259
00.017524 1537
00.000035 510
00.068779 758
00.002638 411
00.022340 293
00.094635 1248
00.024133 1712
00.000726 321
00.029179 1012
00.003902 946
00.064664 688
00.049662 820
00.007496 1034
00.053266 735
00.007954 1659
00.009289 1285
00.040315 1280
00.014672 427
00.016748 933
00.001750 409
00.021650 940
00.088463 1102
00.007353 1089
00.021654 750
00.014705 1629
00.010403 511
00.047932 1656
00.037840 959
00.042855 1264
00.017300 1315
00.011753 956
00.027391 651
00.008619 1647
00.022265 445
00.035209 805
00.003056 676
00.015973 1379
00.012294 420
00.018551 1313
00.023444 1499
00.013564 1501
00.014858 992
00.011285 966
00.001863 628
00.017390 1085
00.089557 591
00.019087 484
00.007154 1253
00.030949 837
00.001215 1660
00.032344 558
00.013766 922
00.052880 1745
00.016982 1130
00.018749 1011
00.023332 1468
00.011505 1101
00.000519 1516
00.017021 1199
00.026094 647
00.002698 606
00.008297 1139
00.017034 678
00.036419 950
00.008199 1616
00.035559 1512
00.010623 771
00.048675 1083
00.009842 1146
00.005246 1111
00.001460 1488
00.025166 1449
00.054887 1273
00.004152 1656
00.033883 1645
00.069182 600
00.007407 1328
00.000849 1398
00.032220 1535
00.002635 1643
00.017205 551
00.001533 469
00.014176 583
00.001502 494
00.027146 571
00.017979 1766
00.042118 1027
00.009648 1335
00.010661 992
00.055987 474
00.012308 1735
00.017130 768
00.015357 1142
00.014961 1632
00.039804 801
00.015372 1588
00.013189 1483
00.024282 1010
00.040621 1756
00.049690 496
00.072306 1242
00.026109 1667
00.008546 504
00.051502 546
00.059126 757
00.032480 515
00.004788 1424
00.007678 1757
00.009066 1582
00.005038 734
00.007161 1368
00.049192 1563
00.011072 860
00.042766 326
00.014136 1649
00.004820 540
00.005668 572
00.035654 1615
00.019877 534
00.023217 528
00.040857 1551
00.025408 1590
00.017699 654
00.018284 1716
00.015696 1274
00.010010 1717
00.008672 461
00.000646 534
00.026579 1756
00.026423 336
00.048292 857
00.034792 661
00.006796 733
00.003253 1390
00.011484 460
00.005110 725
00.003610 1562
00.033641 1283
00.025793 1031
00.013135 1587
00.024109 736
00.004668 1231
00.052722 426
00.006477 850
00.013997 954
00.013797 742
00.002487 1079
00.021219 917
00.008604 1175
00.012999 535
00.042153 594
00.034133 387
00.002526 313
00.018825 702
00.025105 728
00.000463 561
00.001552 1678
00.014532 307
00.044346 1174
00.010399 911
00.020784 927
00.004846 293
00.049839 1267
00.007083 781
00.017271 929
00.005889 1619
00.030083 295
00.006428 1700
00.000247 916
00.005313 1137
00.014711 1334
00.018581 969
00.070603 1405
00.003671 962
00.088240 563
00.063441 492
00.025514 1582
00.000814 377
00.017920 1170
00.004736 280
00.003905 652
00.030695 393
00.004417 1425
00.041934 413
00.007869 741
00.006193 763
00.037678 1665
00.020897 814
00.001258 709
00.071972 1145
00.013117 503
00.031315 1008
00.000974 1505
00.002750 1161
00.000822 478
00.035642 418
00.013745 1461
00.007757 717
00.010130 1245
00.044631 1719
00.047681 753
00.034978 1404
00.004346 1617
00.008956 323
00.024147 1008
00.036517 1630
00.070464 1211
00.015507 685
00.001983 1079
00.009597 420
00.079321 1345
00.000487 450
00.098200 943
00.031573 1172
00.006233 487
00.020147 359
00.024003 1232
00.001989 1046
00.009140 1082
00.004430 1683
00.007284 845
00.016011 468
00.022412 548
00.024417 515
00.022688 1014
00.005638 1472
00.019455 1616
00.006450 607
00.141940 1200
00.018583 604
00.040655 1345
00.034813 1383
00.019384 1079
00.004839 1031
00.006034 597
00.010849 1571
00.005896 638
00.006889 1485
00.003680 751
00.001158 1600
00.023043 819
00.012329 659
00.028406 1304
00.058922 1374
00.000967 972
00.007423 403
00.006756 442
00.044217 1457
00.029577 1157
00.014293 516
00.011933 1414
00.008773 584
00.031439 1045
00.016620 527
00.035603 1619
00.014411 1392
00.001238 1690
00.007383 402
00.009271 1099
00.000225 384
00.015930 1511
00.012617 1304
00.007478 1528
00.007952 805
00.001450 773
00.011935 1424
00.050152 318
00.026870 554
00.019087 874
00.073359 1623
00.041311 283
00.074272 1032
00.001363 308
00.007894 746
00.008455 1421
00.050728 918
00.045545 370
00.025307 866
00.035412 1117
00.000681 713
00.009588 1358
00.006061 1063
00.042778 625
00.003208 852
00.011009 555
00.022378 365
00.003529 1345
00.050287 1110
00.020270 740
00.081243 463
00.007290 1022
00.014612 769
00.117314 1257
00.014896 1553
00.001726 377
00.003790 1666
00.019668 1043
00.021758 883
00.011923 1314
00.016538 555
00.000937 1223
00.018873 818
00.026773 1391
00.010368 1555
00.037855 827
00.011490 423
00.010942 1482
00.020841 709
00.001801 713
00.020897 1237
00.007804 1311
00.010119 476
00.025600 450
00.033559 1119
00.007149 1631
00.001875 789
00.011487 571
00.033922 543
00.025053 1170
00.010188 794
00.004601 711
00.018149 735
00.011913 519
00.004119 653
00.026348 980
00.020562 1289
00.018645 1115
00.024352 1091
00.013913 684
00.004726 1584
00.034916 553
00.014253 994
00.027068 1017
00.018009 663
00.000275 587
00.005642 1700
00.021330 715
00.017957 1684
00.013223 1442
00.029803 573
00.035131 912
00.019749 1299
00.010311 553
00.057940 515
00.008679 1597
00.000111 853
00.060807 404
00.037712 1482
00.020076 838
00.044731 609
00.035195 1639
00.002345 607
00.026474 590
00.002187 414
00.000272 1417
00.004975 1070
00.017245 1398
00.017506 818
00.006839 1121
00.047378 334
00.027364 457
00.008026 1442
00.047947 1079
00.046655 1407
00.007532 1566
00.023602 457
00.043644 1415
00.047947 1581
00.012250 1728
00.005655 1570
00.009793 630
00.014284 1715
00.010470 1007
00.035850 729
00.040677 791
00.041927 1153
00.012099 621
00.019984 1371
00.044969 1749
00.004190 1484
00.014593 1372
00.004613 437
00.025519 1274
00.005868 671
00.073378 308
00.033082 920
00.015301 851
00.003103 1301
00.001838 1154
00.072352 1519
00.023435 1612
00.005113 317
00.007281 1228
00.019726 585
00.037362 1314
00.001610 860
00.002414 374
00.028911 1394
00.054542 389
00.031144 1652
00.000037 799
00.005329 1684
00.030016 1683
00.029102 947
00.003011 1391
00.104304 1406
00.001049 699
00.009449 985
00.041006 691
00.012083 1115
00.014013 1666
00.008991 1547
00.015523 1625
00.040704 1202
00.025084 1320
00.004339 1542
00.037271 362
00.002164 1029
00.001168 470
00.001670 1308
00.113153 1075
00.012226 320
00.031701 666
00.002527 1013
00.018310 1655
00.023996 351
00.029525 1090
00.034402 508
00.007798 991
00.012306 1640
00.006809 325
00.003368 1601
00.000454 1741
00.043572 534
00.007164 1688
00.003908 1698
00.016313 816
00.052602 353
00.004589 457
00.042294 1070
00.002387 1739
00.023988 1683
00.099180 1142
00.020744 600
00.018282 614
00.049569 1009
00.024256 999
00.060797 1445
00.001234 1186
00.012437 1462
00.004292 455
00.002880 333
00.010145 1344
00.023184 427
00.029168 1696
00.024462 818
00.001924 1535
00.011419 1254
00.009076 693
00.001918 1707
00.012805 1037
00.070954 1705
00.010987 1304
00.025265 1535
00.002795 1132
00.026812 1311
00.006397 1497
00.018625 992
00.002288 671
00.013214 1642
00.046636 696
00.005525 1121
00.010102 982
00.014066 1122
00.007031 1180
00.052299 686
00.052229 1365
00.015076 804
00.021676 1403
00.007367 1494
00.003007 578
00.005749 804
00.000722 820
00.005241 1468
00.071718 1039
00.008351 831
00.015838 964
00.019285 799
00.014138 1562
00.030147 531
00.017323 695
00.028016 808
00.042948 1323
00.010341 1174
00.054171 815
00.004255 803
00.036386 732
00.011474 869
00.003253 1018
00.006272 935
00.008156 538
00.021335 1676
00.000261 1519
00.009921 447
00.038825 849
00.002248 630
00.024172 798
00.004438 884
00.006271 692
00.060774 380
00.005298 1081
00.007516 831
00.003969 1731
00.075246 1180
00.021452 649
00.034142 1212
00.031459 1077
00.005205 1492
00.012546 737
00.024972 1411
00.009005 1722
00.020444 1647
00.027333 1585
00.001582 1573
00.029837 935
00.025948 1653
00.013000 677
00.026597 1357
00.023144 1709
00.063006 955
00.003089 566
00.050756 435
00.035405 1248
00.005299 1589
00.001330 410
00.025119 1205
00.022057 1536
00.003497 279
00.008321 1178
00.005220 1668
00.003654 702
00.003509 1739
00.009602 1318
00.004061 716
00.017245 1003
00.043815 1022
00.019563 1266
00.022818 1387
00.018096 609
00.010748 617
00.018666 1078
00.024011 1021
00.000298 981
00.011580 856
00.004185 1106
00.026427 966
00.022500 647
00.054586 846
00.009026 580
00.017880 1635
00.022115 808
00.001633 809
00.015753 335
00.007899 734
00.001621 704
00.020032 1675
00.004195 1396
00.014508 653
00.003259 974
00.012372 467
00.086141 410
00.028660 1763
00.010793 1176
00.018308 1680
00.040963 990
00.037896 817
00.025223 832
00.028793 497
00.066438 1262
00.002060 769
00.021685 399
00.002893 1113
00.002899 1477
00.037544 1757
00.033477 442
00.015966 1113
00.005898 1407
00.023160 1130
00.020001 840
00.005153 1540
00.040532 1628
00.009374 279
00.047878 821
00.003841 602
00.004313 1268
00.010682 644
00.068815 661
00.008337 343
00.015806 985
00.065486 1145
00.022024 559
00.051249 853
00.010618 406
00.036216 1497
00.008021 1097
00.014547 1246
00.027652 1510
00.000965 1440
00.000692 559
00.009920 760
00.034870 958
00.013981 1618
00.008132 669
00.016882 900
00.049168 974
00.047185 289
00.013093 804
00.020527 1601
00.015213 1020
00.010412 1393
00.053815 1411
00.102571 768
00.000967 723
00.068086 1649
00.029160 1144
00.018584 1054
00.003718 893
00.000704 814
00.007212 748
00.016525 302
00.002397 578
00.022618 689
00.023690 618
00.000494 864
00.044145 1671
00.063344 1526
00.021839 1290
00.001077 997
00.009236 1748
00.011240 1593
00.004353 1289
00.017515 1555
00.005107 1078
00.000685 843
00.030169 1083
00.013781 585
00.049834 313
00.001867 799
00.008633 695
00.005532 859
00.014474 785
00.016183 867
00.003143 1593
00.009662 1557
00.001629 1492
00.004384 387
00.005561 597
00.023319 417
00.012441 1743
00.017043 756
00.022570 919
00.011491 1624
00.028353 1473
00.043697 533
00.007461 1644
00.018454 785
00.005676 389
00.016398 1694
00.021895 1732
00.016297 1220
00.025269 975
00.091708 552
00.033308 1554
00.034927 1585
00.003868 1366
00.006586 871
00.010698 508
00.030721 744
00.016911 382
00.031984 1081
00.024322 729
00.010240 1634
00.007865 648
00.007229 1223
00.023485 1388
00.001319 541
00.036741 431
00.019898 371
00.017403 1498
00.019936 310
00.002306 1249
00.003206 1363
00.012850 1061
00.012060 991
00.029098 652
00.000313 904
00.037458 775
00.018969 762
00.027560 536
00.049003 1480
00.018672 595
00.012241 710
00.019396 1351
00.072482 647
00.014769 1080
00.000230 995
00.003311 976
00.068070 1573
00.036252 897
00.055501 745
00.005398 953
00.104185 1661
00.018095 284
00.022502 338
00.005693 373
00.028666 1497
00.045036 1073
00.023044 1255
00.005299 1631
00.037442 1022
00.019480 562
00.002160 980
00.013277 916
00.019790 732
00.024951 1734
00.003930 554
00.000652 727
00.002347 755
00.002781 1162
00.003693 794
00.083130 1505
00.022771 353
00.032324 872
00.035683 380
00.001031 440
00.026471 1571
00.006182 1769
00.022890 1409
00.006214 653
00.015277 1539
00.032381 1575
00.015301 1398
00.020206 656
00.005749 1668
00.033702 932
00.053807 1440
00.010671 459
00.004226 834
00.012218 1494
00.005402 416
00.007298 582
00.052516 431
00.009660 1557
00.008220 840
00.003961 327
00.044830 1758
00.001914 1121
00.011898 791
00.079616 1585
00.000821 442
00.011771 360
00.003636 1188
00.001676 1229
00.015936 1510
00.005582 289
00.038969 1056
00.025902 1578
00.001626 1253
00.032483 842
00.003743 1669
00.052433 1652
00.032138 1209
00.015762 537
00.022856 1131
00.041686 1602
00.032269 1399
00.050094 583
00.038650 441
00.000441 729
00.032781 783
00.013473 1337
00.001962 1696
00.005021 1317
00.020180 1178
00.091218 1493
00.017613 1303
00.043483 1255
00.029352 948
00.019401 482
00.035557 1649
00.012746 658
00.033567 350
00.003930 412
00.005738 840
00.000716 1681
00.004914 1133
00.019632 494
00.005857 1746
00.070062 518
00.081103 473
00.023862 1271
00.019571 1763
00.036893 937
00.058421 691
00.011081 368
00.036666 426
00.047312 872
00.025768 744
00.014914 1384
00.071082 1230
00.003099 1403
00.126568 1749
00.062821 1400
00.011110 1657
00.046013 287
00.009789 1490
00.011549 807
00.018620 1640
00.018365 705
00.004190 567
00.001686 678
00.005784 1258
00.017862 825
00.056327 1529
00.007160 1145
00.005960 561
00.060720 756
00.054798 1107
00.003918 605
00.015821 1729
00.062060 671
00.013109 851
00.011163 649
00.037203 607
00.012676 558
00.058852 1525
00.008749 1772
00.001043 766
00.000859 1595
00.024936 1108
00.003437 849
00.008355 712
00.039530 1275
00.051994 1078
00.012064 1605
00.050428 403
00.015108 788
00.002158 869
00.007286 344
00.068678 636
00.012557 497
00.012451 1513
00.016444 340
00.004073 1028
00.038865 682
00.050292 1618
00.004418 416
00.009163 893
00.015983 761
00.008975 909
00.103700 1598
00.014164 1767
00.001874 986
00.001254 1193
00.018849 728
00.016609 1143
00.000755 762
00.000969 620
00.017007 1590
00.000584 955
00.003491 637
00.000021 879
00.001115 784
00.017406 831
00.003579 1648
00.011113 1761
00.023589 1417
00.057054 1064
00.003360 346
00.047625 318
00.000459 1186
00.000903 685
00.012034 1451
00.008746 865
00.015655 1675
00.001369 551
00.018091 1681
00.001902 1657
00.052802 1310
00.022611 1332
00.012885 717
00.011932 1292
00.013664 1203
00.051150 524
00.052057 1560
00.063733 1371
00.002082 1358
00.011419 1393
00.007120 1318
00.005311 1244
00.002772 814
00.005991 871
00.026008 465
00.001599 1720
00.002069 1433
00.014146 611
00.043777 1498
00.005320 719
00.013916 965
00.013530 1646
00.002458 1177
00.004049 647
00.008316 1336
00.012151 1276
00.018339 384
00.001898 924
00.017603 593
00.003418 868
00.002500 1392
00.035994 1154
00.003538 502
00.044187 959
00.027090 403
00.003424 467
00.034301 541
00.002076 853
00.010156 843
00.004732 1014
00.024668 399
00.045262 483
00.008935 1569
00.017891 368
00.021561 1372
00.007384 809
00.018516 1720
00.033896 1333
00.072397 1252
00.027493 1172
00.027068 1192
00.003254 1612
00.019693 946
00.008417 1076
00.001199 491
00.015649 348
00.002935 370
00.007389 714
00.005129 1191
00.010030 1139
00.005471 380
00.004249 341
00.033596 491
00.043768 1060
00.005581 516
00.055052 343
00.001175 1190
00.044262 539
00.004414 1417
00.007392 611
00.008239 916
00.011835 1024
00.010539 1253
00.010654 1367
00.001111 1133
00.021844 1517
00.015470 900
00.000427 339
00.066578 1669
00.105654 726
00.020190 799
00.011322 1489
00.008323 884
00.018758 604
00.019571 1018
00.018469 691
00.016284 339
00.025363 1599
00.011732 1589
00.007965 1724
00.091732 1346
00.036543 1131
00.102658 1016
00.005636 353
00.019173 908
00.014322 1480
00.014628 1713
00.029530 752
00.099355 1548
00.013527 1657
00.003749 413
00.012523 334
00.032071 820
00.010591 1682
00.021750 561
00.010533 1014
00.011451 1259
00.005627 611
00.022456 343
00.036188 961
00.007302 1320
00.020949 1717
00.018678 1565
00.008890 897
00.021277 1538
00.001644 314
00.001924 1305
00.013270 1614
00.028493 1514
00.005826 292
00.067018 428
00.010573 720
00.010470 1574
00.010730 517
00.040591 347
00.030099 927
00.012024 983
00.027387 858
00.017436 583
00.021251 1319
00.003752 780
00.000277 476
00.007416 1006
00.024166 425
00.114182 1681
00.036022 922
00.072173 554
00.014912 827
00.004790 1517
00.005602 1038
00.038569 1476
00.013959 471
00.002367 705
00.001858 1369
00.029522 777
00.025888 1699
00.031440 1444
00.013428 716
00.072763 1612
00.015590 318
00.020874 880
00.012970 387
00.001946 1152
00.046158 421
00.040918 1359
00.001391 1755
00.003780 1237
00.040401 1333
00.003029 1682
00.013619 1429
00.003469 1495
00.005240 819
00.002432 1624
00.008045 1653
00.009161 1567
00.000636 506
00.019021 614
00.031059 451
00.001625 838
00.003436 1341
00.009694 503
00.011158 454
00.011759 904
00.040479 976
00.005232 1591
00.032412 1624
00.015021 1607
00.029894 445
00.008665 481
00.014185 1421
00.002582 1433
00.025605 613
00.010308 1748
00.041601 1026
00.003580 1357
00.006406 1370
00.004162 1655
00.042215 881
00.003124 1741
00.048828 1666
00.042132 707
00.005096 585
00.065739 677
00.001217 802
00.023679 477
00.044932 1194
00.000949 315
00.019878 1387
00.059738 1242
00.018750 1734
00.001666 1232
00.098593 1440
00.046237 934
00.014102 1102
00.020342 906
00.046164 772
00.056384 1501
00.010283 275
00.026991 807
00.028315 1150
00.017911 795
00.017558 653
00.004514 775
00.013842 1312
00.017352 1302
00.046290 689
00.016187 1648
00.014177 1674
00.013713 1477
00.060812 862
00.002331 1447
00.002440 1773
00.026514 1372
00.025005 525
00.020249 504
00.024038 1634
00.013963 1693
00.038111 1263
00.012698 1551
00.004498 1229
00.023147 1145
00.001219 332
00.032914 428
00.045244 801
00.029229 553
00.023601 346
00.000876 607
00.028332 321
00.024367 1198
00.008383 374
00.011977 1222
00.009655 829
00.033071 862
00.018893 1644
00.005444 852
00.000212 365
00.014458 476
00.040032 838
00.002582 1181
00.040580 747
00.002320 1589
00.011937 529
00.017634 573
00.066290 981
00.000788 1373
00.003057 548
00.033939 1768
00.010313 1742
00.014139 893
00.011412 1391
00.066152 467
00.050227 1592
00.017749 1490
00.008271 704
00.018079 378
00.098703 1348
00.009332 1426
00.001800 874
00.007230 1744
00.005925 443
00.020438 1268
00.000029 672
00.043364 920
00.013056 1719
00.003377 1596
00.024334 424
00.028591 1343
00.017322 987
00.005436 1403
00.046517 788
00.003945 937
00.003931 669
00.041354 1093
00.009395 1128
00.058557 346
00.014347 838
00.042583 1271
00.008852 1336
00.013519 473
00.028117 1518
00.023604 1200
00.017241 1461
00.038775 819
00.014817 1118
00.068620 1184
00.047410 587
00.002206 1206
00.036707 705
00.036625 304
00.003329 1682
00.003143 775
00.009963 1304
00.040680 1339
00.020847 1694
00.005375 1062
00.002629 308
00.006202 895
00.004063 1518
00.045654 988
00.010900 1251
00.002066 1073
00.052339 1618
00.009664 1313
00.027519 735
00.017168 1731
00.027890 1772
00.024437 1583
00.004566 1686
00.048285 435
00.026200 1291
00.014674 946
00.036176 779
00.029056 1163
00.008368 1499
00.002085 1416
00.007224 1350
00.039473 305
00.022361 1770
00.016204 901
00.008590 1582
00.001639 663
00.015504 1249
00.055699 533
00.012095 817
00.001272 1419
00.015072 1191
00.025386 505
00.000879 1061
00.032400 1071
00.015146 1160
00.040052 731
00.042554 694
00.019794 686
00.039161 283
00.000597 589
00.001505 982
00.036301 1497
00.006901 716
00.072469 1529
00.001206 319
00.006287 1455
00.025347 409
00.016052 389
00.023317 961
00.001868 1433
00.015247 959
00.011156 320
00.003487 1215
00.010686 565
00.001489 1224
00.046523 294
00.001140 499
00.033951 1544
00.039112 1626
00.003790 721
00.037042 1302
00.050444 816
00.015454 1705
00.003809 387
00.022411 536
00.007150 1594
00.017582 1085
00.005936 637
00.150479 1242
00.056766 1569
00.008531 320
00.012209 781
00.041742 626
00.011666 888
00.000032 1077
00.038604 415
00.013319 1764
00.002135 1613
00.023817 1553
00.008324 928
00.073625 503
00.024127 1522
00.008623 1630
00.011652 454
00.007408 1087
00.031954 899
00.004847 524
00.046785 482
00.004859 584
00.014290 325
00.056847 441
00.024550 1762
00.034451 803
00.005145 617
00.010551 359
00.030786 698
00.000033 1332
00.005257 1177
00.006208 1646
00.024589 450
00.008637 1250
00.028981 892
00.009103 290
00.009984 620
00.004852 906
00.001915 1101
00.000288 1184
00.055539 1409
00.011573 1206
00.004251 1308
00.022510 1714
00.021862 1656
00.002832 1597
00.011351 889
00.029233 1235
00.046749 1621
00.005667 1140
00.013548 643
00.007749 1116
00.043069 511
00.003442 1669
00.001489 1275
00.010644 1455
00.029358 444
00.018609 804
00.012434 278
00.010039 1087
00.011705 1578
00.012167 717
00.014616 808
00.016835 903
00.014383 1472
00.025007 814
00.000432 598
00.006310 1355
00.009288 756
00.004662 1407
00.043325 1330
00.009867 1298
00.016565 498
00.033201 717
00.010952 876
00.005537 1558
00.051999 539
00.006141 931
00.051152 1240
00.050513 1266
00.020051 582
00.003914 1657
00.000375 655
00.037020 1674
00.047510 1076
00.030974 1602
00.016284 1428
00.036483 320
00.007678 1593
00.037540 326
00.002417 668
00.030334 991
00.011922 1351
00.054800 1669
00.018839 1750
00.025553 1532
00.006406 521
00.068351 1590
00.027176 1328
00.011300 1504
00.010398 1099
00.009607 639
00.019129 658
00.067438 305
00.006758 812
00.024910 1354
00.001809 1056
00.005433 1630
00.004510 771
00.001919 1339
00.024346 1611
00.040842 438
00.000436 372
00.005552 1395
00.029821 1386
00.005575 1158
00.005543 1198
00.019690 1563
00.003660 1297
00.021346 819
00.009540 709
00.011878 420
00.010796 1767
00.021107 736
00.023122 320
00.000835 1571
00.044860 512
00.024649 770
00.044541 824
00.036002 697
00.025563 743
00.022310 814
00.046716 1283
00.021317 948
00.029615 1611
00.010340 1097
00.004328 328
00.003842 1615
00.006759 1298
00.007350 1561
00.051082 742
00.011338 590
00.022080 561
00.028982 1137
00.021457 472
00.009401 1552
00.024270 1640
00.035631 1198
00.035308 468
00.024886 540
00.013748 362
00.022266 646
00.048589 1406
00.013388 707
00.003423 901
00.004784 855
00.009867 1127
00.008654 456
00.021305 1460
00.025613 619
00.011445 941
00.070226 1378
00.073196 1589
00.026049 1760
00.006033 1190
00.012454 1099
00.073361 863
00.005827 674
00.005345 1010
00.023579 802
00.009137 865
00.023840 1378
00.000712 1041
00.050116 711
00.024225 892
00.033406 993
00.011857 1264
00.025986 817
00.046005 831
00.002697 1001
00.003096 604
00.004576 1617
00.003775 541
00.069857 915
00.061331 1396
00.032642 362
00.029725 303
00.001796 937
00.035522 1219
00.004774 1576
00.008593 1267
00.015416 1172
00.007250 1545
00.019832 897
00.009873 914
00.002427 1681
00.017917 592
00.013129 356
00.015670 1751
00.020113 1214
00.077000 376
00.015815 1425
00.047641 1630
00.019738 1471
00.037505 314
00.012169 1320
00.011470 976
00.042940 914
00.047411 736
00.009013 1767
00.070270 331
00.013167 1160
00.023351 936
00.002302 1433
00.057330 1591
00.001077 812
00.092602 1284
00.006985 423
00.000772 844
00.010977 1436
00.001069 1536
00.017137 381
00.040212 1487
00.013978 1476
00.009062 1707
00.054218 1009
00.013341 1455
00.043953 875
00.032302 840
00.006405 1510
00.037703 1500
00.022354 1075
00.016469 969
00.016033 836
00.020809 1494
00.050554 1625
00.001753 353
00.020258 533
00.006567 1219
00.051712 1771
00.004951 1769
00.000941 1306
00.150736 521
00.035898 1768
00.036146 1099
00.046774 1494
00.090572 457
00.026608 714
00.008661 383
00.004691 1186
00.102353 1311
00.013037 856
00.026405 1398
00.019602 1694
00.012606 1462
00.043626 1208
00.003608 666
00.009173 509
00.028550 1418
00.010585 297
00.010921 923
00.030866 520
00.013762 425
00.015534 1620
00.004359 599
00.011264 735
00.005708 626
00.013533 1485
00.008296 1272
00.036464 844
00.011780 1741
00.012841 499
00.040686 375
00.013741 1555
00.075794 1139
00.006129 930
00.007611 835
00.009971 769
00.005621 1386
00.012116 823
00.010649 1138
00.008347 444
00.025938 947
00.011315 1012
00.016247 640
00.004990 1613
00.016648 1743
00.004867 574
00.033674 1000
00.004278 1437
00.027703 1552
00.018482 561
00.000905 893
00.004329 733
00.066718 668
00.009154 621
00.011012 493
00.011099 1398
00.006319 333
00.000022 843
00.002368 753
00.006774 326
00.024455 619
00.006735 566
00.019631 1205
00.026996 1151
00.003319 324
00.014164 1438
00.019457 598
00.008376 467
00.005515 1244
00.019980 1581
00.010426 1146
00.064756 347
00.005624 836
00.052490 322
00.002074 1064
00.028676 1056
00.003943 782
00.011688 440
00.000638 1038
00.017530 735
00.001658 465
00.001048 827
00.006301 1387
00.009876 1631
00.017683 1144
00.026952 326
00.001846 571
00.004203 1435
00.006284 1536
00.007511 1290
00.002824 693
00.010516 1212
00.017783 1554
00.016313 1073
00.021100 1399
00.001707 1769
00.002969 1709
00.005641 604
00.059577 1391
00.014144 784
00.010282 1555
00.001388 1620
00.049993 621
00.030108 624
00.046946 311
00.052168 1748
00.056041 1165
00.000794 660
00.004381 564
00.033655 1568
00.010812 1384
00.020285 1424
00.037046 531
00.079639 620
00.011871 1208
00.006540 1575
00.007013 1538
00.002473 1500
00.010851 531
00.052228 1678
00.005637 1480
00.086042 1573
00.019111 574
00.003948 287
00.063083 564
00.009862 1600
00.000034 1399
00.023599 1021
00.004719 544
00.001308 828
00.003153 742
00.041533 1688
00.001090 446
00.021089 1108
00.000798 451
00.039775 517
00.039811 1482
00.043822 1587
00.004508 1371
00.012533 1277
00.040181 1385
00.044151 984
00.009880 596
00.017625 702
00.012391 316
00.008973 792
00.013581 1150
00.022058 642
00.020075 579
00.039912 485
00.000524 1009
00.004853 1632
00.003193 289
00.026495 434
00.020605 1260
00.020585 842
00.011618 587
00.003886 1371
00.008694 910
00.023805 641
00.040707 787
00.032197 672
00.017165 1080
00.045606 848
00.009690 802
00.040904 1288
00.026509 341
00.011338 1355
00.011000 1531
00.006021 658
00.022748 409
00.006835 831
00.059481 1371
00.054776 1607
00.008317 618
00.008659 1357
00.006383 720
00.004299 1422
00.040173 553
00.056442 1744
00.041612 1008
00.002054 376
00.029560 581
00.009979 1221
00.037650 301
00.006182 1484
00.011502 1157
00.012698 1276
00.029917 560
00.000031 618
00.011062 985
00.027811 1488
00.003214 917
00.053003 381
00.075101 1587
00.004583 1396
00.016689 1739
00.000489 338
00.013211 1088
00.104155 1595
00.001657 1338
00.022833 1524
00.008606 1575
00.020930 585
00.002361 1755
00.015417 1126
00.003789 694
00.006470 1355
00.014685 1277
00.013643 923
00.019988 372
00.021492 835
00.022231 370
00.031275 1312
00.006521 610
00.044329 1361
00.010438 274
00.014408 735
00.037115 603
00.025476 1516
00.021925 445
00.016819 1542
00.037914 1559
00.020208 1299
00.015968 1023
00.031925 1187
00.054992 344
00.044310 1515
00.001594 1563
00.036159 947
00.028804 1648
00.015054 983
00.043643 657
00.006163 1052
00.000443 1650
00.024548 1322
00.013494 897
00.003481 1217
00.004752 1106
00.075613 1204
00.001892 1648
00.000337 1541
00.002858 1018
00.027674 1671
00.007976 759
00.008516 989
00.006163 433
00.065875 434
00.010647 1461
00.022848 447
00.042990 668
00.033977 349
00.006286 333
00.001541 375
00.005900 1659
00.018202 922
00.000437 1229
00.054656 911
00.064031 1014
00.011069 631
00.000383 1229
00.028054 900
00.012550 1671
00.017483 1534
00.020449 546
00.017552 1404
00.056417 1481
00.005244 964
00.016617 697
00.047510 797
00.004665 754
00.005933 601
00.047119 1748
00.041623 1017
00.025856 1149
00.001721 396
00.008714 1225
00.044903 1052
00.014126 931
00.031593 860
00.007197 1317
00.008891 1250
00.036778 593
00.011664 379
00.010445 1133
00.011624 1270
00.000833 1533
00.026571 1508
00.124306 275
00.000509 722
00.063997 1429
00.002511 728
00.103133 287
00.018406 1695
00.056524 1074
00.004167 1189
00.001493 343
00.019636 527
00.003451 1143
00.002046 638
00.036764 870
00.017488 1611
00.006967 503
00.027340 1690
00.003810 727
00.001757 1232
00.024567 1240
00.019765 373
00.014040 917
00.040908 631
00.035439 898
00.006277 1150
00.055003 740
00.016851 277
00.050247 1154
00.036531 1177
00.017439 1104
00.004860 1767
00.012977 1142
00.003836 557
00.038084 1464
00.003701 1509
00.043965 1024
00.019296 1681
00.036817 706
00.001870 1299
00.006355 466
00.009839 1604
00.043891 1333
00.055857 1683
00.047310 1593
00.006108 529
00.007859 947
00.007233 1088
00.049717 1166
00.031697 1237
00.010128 843
00.062296 1622
00.000469 1539
00.024871 780
00.045855 1690
00.039567 533
00.007177 901
00.042671 355
00.002118 1060
00.023520 1331
00.000376 1401
00.031628 443
00.010082 964
00.075507 921
00.006583 370
00.003886 770
00.004755 1269
00.010090 1758
00.001744 1360
00.014618 1309
00.012020 765
00.019406 1545
00.045805 1628
00.018124 1177
00.002397 724
00.031955 448
00.012638 1430
00.132536 1184
00.005807 505
00.041428 1148
00.016393 1386
00.017883 1430
00.056233 403
00.004346 1174
00.002315 477
00.005679 606
00.016290 399
00.009159 1150
00.000810 326
00.013069 544
00.040146 888
00.011678 1126
00.000842 1627
00.020823 991
00.011366 386
00.028426 456
00.009552 1667
00.033149 1769
00.001602 1343
00.010310 638
00.012853 1766
00.030112 784
00.014376 283
00.002438 1146
00.017838 1528
00.001990 866
00.004398 1081
00.000737 504
00.000710 1145
00.030536 316
00.004974 806
00.032704 1728
00.065946 1206
00.004527 1267
00.019715 1002
00.061651 1433
00.002622 1560
00.004679 861
00.010486 1248
00.084099 614
00.008817 1223
00.030944 1557
00.000779 1361
00.029095 1501
00.031221 1324
00.010950 1136
00.011742 1555
00.001086 1086
00.028844 674
00.040497 424
00.022382 1359
00.030582 808
00.089141 1463
00.008936 1745
00.018519 693
00.009995 1345
00.009270 414
00.013610 1060
00.085087 1102
00.013042 560
00.027575 365
00.019482 1609
00.036289 1619
00.001337 1642
00.002697 1328
00.025296 649
00.005631 1281
00.016588 1380
00.008309 1110
00.001012 360
00.050369 665
00.009844 403
00.027640 482
00.059669 1382
00.007940 1077
00.063268 1641
00.014223 1024
00.028817 474
00.017117 1174
00.063921 292
00.006002 365
00.006183 394
00.021921 955
00.024871 443
00.008738 1073
00.038344 1647
00.023692 1370
00.006434 1186
00.037831 1229
00.014782 1064
00.042056 1350
00.001064 789
00.004152 845
00.010111 648
00.046701 1077
00.011709 1256
00.001824 590
00.006566 355
00.084052 516
00.036253 274
00.012438 1634
00.017487 1027
00.002317 687
00.015933 1433
00.023907 703
00.022589 627
00.043368 898
00.004129 1063
00.006697 1109
00.028301 1268
00.007243 1041
00.067465 653
00.014128 1535
00.011260 612
00.005492 348
00.010466 470
00.004570 580
00.120622 433
00.011585 996
00.017866 609
00.008258 431
00.077975 1172
00.015721 477
00.009883 1711
00.085847 1544
00.000603 744
00.001782 701
00.003083 1413
00.001718 1733
00.021252 1234
00.018229 1467
00.019114 986
00.013125 1668
00.025956 917
00.012401 312
00.024321 1521
00.003950 1269
00.004532 692
00.015272 391
00.006283 1318
00.015848 1536
00.002589 1755
00.018279 842
00.015239 1277
00.023569 1502
00.033048 631
00.044736 1096
00.016818 1625
00.030377 1527
00.009927 318
00.006703 622
00.097729 872
00.005224 334
00.008358 1445
00.039833 892
00.018742 776
00.002063 923
00.051926 1363
00.008791 371
00.005412 974
00.029706 683
00.002528 1666
00.118195 1215
00.018063 769
00.001416 1698
00.018215 723
00.010680 1508
00.024541 991
00.005519 666
00.010568 1431
00.014708 1380
00.013106 1111
00.006673 666
00.023360 695
00.040999 670
00.005805 1298
00.000432 1070
00.002501 787
00.008284 1763
00.082546 455
00.005867 318
00.004739 1170
00.001734 1214
00.026016 1612
00.014611 370
00.001049 366
00.012512 607
00.002359 931
00.027838 1281
00.030554 896
00.018407 964
00.019293 1310
00.004056 721
00.014817 1231
00.009544 748
00.013688 566
00.010565 1048
00.046632 846
00.005325 1258
00.021504 1117
00.017639 828
00.044213 1745
00.070589 1424
00.037851 964
00.022518 668
00.061713 1705
00.011198 814
00.036274 745
00.038007 1341
00.014362 1632
00.040317 706
00.000841 1282
00.015831 716
00.018626 1160
00.002221 1610
00.010195 1370
00.048560 1722
00.001994 736
00.001222 746
00.020725 1378
00.015370 995
00.018821 1763
00.036177 1525
00.006690 821
00.013586 288
00.003261 1052
00.004203 1196
00.030302 1225
00.009490 921
00.020424 452
00.016745 1444
00.003975 1366
00.002700 811
00.043924 1662
00.009396 1456
00.072514 688
00.022419 1368
00.040172 1773
00.021466 1726
00.003901 1329
00.017164 1550
00.033308 814
00.001645 675
00.020054 915
00.010881 1004
00.048564 944
00.031576 568
00.016823 1135
00.015636 1699
00.008575 753
00.009104 422
00.004982 1700
00.019241 1486
00.008433 1215
00.032682 1423
00.020447 1230
00.010013 1197
00.010941 1501
00.035241 702
00.002274 1136
00.011566 367
00.021293 1615
00.033228 1691
00.013731 1257
00.020447 1276
00.001865 1209
00.033730 1123
00.006513 380
00.001591 671
00.027971 1254
00.014979 1318
00.027949 1696
00.056496 553
00.014887 678
00.014492 1618
00.000323 1035
00.018869 1045
00.007877 380
00.037254 305
00.016251 467
00.020894 685
00.002772 803
00.002245 959
00.009611 1175
00.027082 511
00.025079 1070
00.016576 546
00.005990 1054
00.028562 1418
00.008630 496
00.002289 1719
00.004222 384
00.002172 889
00.013533 1704
00.058283 1393
00.015530 1601
00.039230 898
00.022108 1268
00.018451 1769
00.064906 1009
00.007130 501
00.010740 1522
00.006802 723
00.039747 1448
00.042936 1644
00.081630 855
00.021283 380
00.021293 1644
00.000502 1294
00.068095 590
00.040745 1554
00.003388 1179
00.000710 978
00.014879 331
00.003047 1228
00.052067 767
00.010047 1677
00.046870 1178
00.005673 677
00.001127 843
00.006278 1262
00.014445 386
00.004105 683
00.007426 1278
00.000640 965
00.003981 1571
00.068457 672
00.011638 738
00.011828 1514
00.052658 1401
00.039431 900
00.059501 825
00.008492 836
00.004814 450
00.029310 720
00.016148 785
00.019221 1270
00.004854 589
00.001339 879
00.021823 409
00.027286 1495
00.006651 1020
00.040014 1744
00.020366 465
00.003988 284
00.015605 566
00.019442 317
00.010789 1541
00.019230 659
00.003676 1754
00.007689 1102
00.002970 1767
00.011109 843
00.018240 576
00.015640 428
00.000880 1069
00.037128 1225
00.038262 1400
00.000863 1274
00.045148 1092
00.015502 805
00.013051 1055
00.010101 1630
00.021927 1712
00.005801 493
00.011791 407
00.016047 638
00.033915 1293
00.059471 1617
00.015367 1127
00.029853 1698
00.016440 662
00.003116 1742
00.011949 857
00.030789 1728
00.014674 1345
00.008518 1728
00.016927 1181
00.016278 823
00.045260 469
00.017261 1411
00.021440 616
00.017296 514
00.009137 532
00.033205 659
00.003299 999
00.007678 872
00.011050 850
00.010858 676
00.005179 377
00.033835 841
00.016035 743
00.025930 1638
00.006376 573
00.019419 1525
00.014218 510
00.023848 559
00.051854 482
00.104415 958
00.014828 614
00.137952 732
00.082584 1038
00.030552 992
00.024931 1000
00.014497 289
00.030405 1443
00.013080 356
00.045201 427
00.018015 462
00.045562 488
00.005116 1578
00.017362 646
00.011908 787
00.000291 1499
00.002113 691
00.010794 1125
00.000633 1517
00.015731 1494
00.005566 1062
00.013390 960
00.002700 955
00.005479 1661
00.017132 628
00.009352 1764
00.013096 547
00.044885 1679
00.033792 1585
00.010560 1407
00.039979 947
00.035845 491
00.007286 1274
00.004085 840
00.012388 1753
00.045088 1475
00.001428 1594
00.041598 620
00.048834 1544
00.067105 1448
00.034319 1097
00.000919 731
00.003858 1523
00.000852 991
00.011560 943
00.005927 1141
00.013126 803
00.086225 1717
00.040616 1408
00.032324 283
00.001585 1126
00.001811 280
00.023818 532
00.002596 485
00.046391 1732
00.013549 1002
00.020192 1639
00.015604 300
00.004858 341
00.000032 1106
00.034464 859
00.015896 1296
00.001243 974
00.018472 656
00.010070 302
00.008117 1139
00.012090 1169
00.008554 1559
00.001349 369
00.099567 1257
00.021052 1202
00.015360 632
00.006707 1089
00.032681 662
00.029707 1201
00.008422 454
00.001774 1454
00.005791 1230
00.008767 595
00.000341 848
00.006186 1473
00.045205 826
00.009646 1238
00.007269 1155
00.034140 308
00.020410 747
00.044270 350
00.005218 1023
00.010754 1040
00.011119 437
00.021004 823
00.019605 1611
00.021531 913
00.003816 1119
00.040718 1432
00.006220 1336
00.015506 795
00.052913 702
00.040116 947
00.011508 978
00.029475 528
00.034274 923
00.013191 1502
00.003234 1324
00.007499 868
00.002414 1418
00.023654 1127
00.139044 411
00.003283 663
00.004692 1590
00.021001 1661
00.030904 1283
00.012032 1270
00.021886 324
00.012374 917
00.005694 1569
00.043664 923
00.005578 1700
00.013792 685
00.024794 845
00.001535 672
00.008697 1213
00.041427 693
00.030577 1772
00.010735 600
00.010422 1136
00.010459 309
00.031966 1600
00.035164 1425
00.009615 586
00.071041 824
00.063293 943
00.052781 1135
00.055474 798
00.017056 1597
00.040547 1212
00.017849 1364
00.040343 610
00.011192 1365
00.026890 619
00.029965 1302
00.004937 1176
00.002403 330
00.014292 400
00.004185 511
00.016330 567
00.043270 765
00.001592 1078
00.009911 1409
00.007842 1000
00.050211 1770
00.054531 1619
00.016609 1017
00.000607 1165
00.003933 845
00.059555 481
00.040480 1310
00.002455 417
00.008299 1075
00.002505 1643
00.011372 590
00.053311 934
00.002532 1006
00.029111 461
00.043823 747
00.008975 1352
00.056086 1149
00.003405 1031
00.016553 1232
00.001252 899
00.001270 1548
00.071453 1113
00.042033 1519
00.012206 1055
00.008924 890
00.018691 1012
00.012128 1205
00.109362 1438
00.005041 782
00.025822 1525
00.007533 1648
00.008276 347
00.022607 1098
00.007955 479
00.005929 766
00.015061 1248
00.034605 901
00.006542 1011
00.003309 1646
00.066485 770
00.002984 589
00.123760 844
00.014982 1091
00.010608 563
00.028259 818
00.000523 1321
00.001881 275
00.025398 1351
00.008281 1535
00.017431 925
00.038411 374
00.040973 1542
00.029310 595
00.044174 1722
00.025861 1359
00.034952 654
00.044842 378
00.010432 648
00.009422 512
00.033922 1724
00.004898 990
00.003182 330
00.014047 1018
00.014878 869
00.009665 996
00.046812 444
00.007072 1543
00.015122 1203
00.000791 1670
00.081781 410
00.006503 578
00.032036 1132
00.022983 802
00.024335 1715
00.015013 275
00.012631 1725
00.002204 521
00.008251 1736
00.041004 1324
00.036563 1389
00.003682 630
00.005574 306
00.039623 1149
00.008284 1502
00.008068 443
00.008019 1249
00.000559 296
00.040396 1535
00.000557 1332
00.035398 314
00.003130 581
00.002346 883
00.030688 1441
00.010518 958
00.016708 1146
00.000203 463
00.017183 1571
00.030295 1447
00.002961 1180
00.010228 1404
00.006242 1203
00.000880 1449
00.019798 513
00.006514 445
00.005045 822
00.008188 1721
00.014328 598
00.036023 1039
00.038508 1734
00.006851 631
00.005369 333
00.001782 1226
00.006801 887
00.006263 633
00.055777 830
00.004686 1630
00.034731 460
00.001971 1238
00.009282 587
00.002021 1607
00.019583 984
00.034693 1619
00.010904 954
00.001801 1229
00.003195 1132
00.014539 979
00.017725 1249
00.054382 1730
00.021072 654
00.058021 1412
00.027130 1702
00.003620 308
00.022327 1385
00.018556 1445
00.008886 511
00.038614 282
00.008969 1655
00.004628 1685
00.025974 1655
00.015962 362
00.004263 1431
00.079257 1359
00.028392 1160
00.030243 1110
00.084299 774
00.005085 467
00.013410 726
00.056606 837
00.013952 1482
00.018123 469
00.003161 1436
00.001146 1295
00.014494 816
00.045223 310
00.031839 450
00.029184 801
00.010099 1703
00.007825 1489
00.000683 1339
00.022806 1532
00.005923 1039
00.004591 1319
00.042039 1058
00.009717 822
00.032888 484
00.036918 1449
00.002967 496
00.013813 1001
00.026227 1443
00.032604 432
00.004734 540
00.022269 392
00.005422 1153
00.044628 769
00.016717 275
00.056191 945
00.002851 615
00.033484 1717
00.000912 1702
00.023963 1353
00.075937 1547
00.010406 519
00.001632 735
00.002409 925
00.001610 679
00.040235 436
00.011711 1200
00.020077 885
00.006391 1233
00.024544 1113
00.081667 1069
00.025638 474
00.004131 722
00.007637 1592
00.000388 666
00.049393 1460
00.036319 1461
00.002251 1397
00.012160 348
00.013690 897
00.027287 1305
00.036351 685
00.019392 1225
00.004516 845
00.014768 523
00.013407 1073
00.023469 1572
00.001307 596
00.011006 543
00.005269 1504
00.041035 1731
00.001513 646
00.005977 1408
00.004436 990
00.006057 925
00.034736 580
00.005211 1683
00.040529 561
00.043258 368
00.077679 286
00.001846 436
00.023577 1312
00.016954 947
00.005928 941
00.068031 1180
00.032365 1637
00.050631 1393
00.063235 1491
00.002502 598
00.059221 1564
00.012656 1466
00.008415 1193
00.009260 738
00.001366 821
00.009631 1114
00.014274 1168
00.049765 1751
00.019412 882
00.004915 699
00.013715 1131
00.084183 1732
00.031324 934
00.002888 1445
00.007074 414
00.007772 846
00.000354 955
00.035237 766
00.017334 804
00.008347 1466
00.017801 1655
00.014427 496
00.010427 664
00.020884 953
00.008349 703
00.046281 1551
00.002838 737
00.005238 663
00.019581 396
00.001022 1445
00.024907 458
00.064058 1354
00.011023 1055
00.005789 1086
00.002642 826
00.028510 1047
00.021713 1761
00.000537 705
00.004863 457
00.002432 1721
00.033806 1772
00.009657 792
00.036622 1220
00.044519 1338
00.032174 1306
00.022103 1647
00.045029 282
00.037601 1721
00.018847 542
00.031064 615
00.006687 1749
00.060330 820
00.002069 296
00.004896 1479
00.016670 499
00.015293 1010
00.009441 367
00.013155 834
00.034939 1046
00.008500 597
00.035541 498
00.002405 740
00.014167 1272
00.014807 1498
00.015906 454
00.045587 817
00.000485 1134
00.008924 1169
00.006826 818
00.019416 414
00.001843 1757
00.007554 1041
00.051138 1361
00.003770 1720
00.002914 1204
00.037981 599
00.021931 542
00.007925 944
00.049585 1387
00.049741 1172
00.008278 856
00.022837 688
00.073705 942
00.015744 1142
00.045077 534
00.020776 495
00.040939 1161
00.000463 1058
00.008156 1716
00.011027 796
00.016392 1675
00.018688 1064
00.027997 1131
00.014613 953
00.045716 1711
00.048816 1626
00.034885 1121
00.096105 1201
00.016922 1148
00.009757 1241
00.005919 593
00.007474 417
00.005277 1750
00.010829 619
00.007158 1695
00.104112 747
00.009050 1457
00.025818 667
00.001233 433
00.066464 607
00.012137 1391
00.023695 1588
00.019665 1476
00.036234 1423
00.019005 526
00.005398 1703
00.000250 1068
00.016709 516
00.023973 1300
00.011307 1235
00.029058 622
00.044107 1427
00.002796 1322
00.011122 1745
00.006437 1317
00.027858 968
00.001080 538
00.002609 1196
00.054010 831
00.017986 1469
00.003338 701
00.033332 1231
00.001067 1106
00.021170 1607
00.003420 900
00.023286 1692
00.007700 943
00.001295 1708
00.002053 731
00.048825 1600
00.028901 903
00.027110 699
00.000404 506
00.064941 616
00.047576 865
00.003520 1115
00.018754 1595
00.008695 325
00.003512 1714
00.015367 330
00.017196 1167
00.023897 1061
00.019786 348
00.078919 1415
00.017963 393
00.035024 918
00.064111 1087
00.011508 533
00.001508 1345
00.003139 1054
00.027702 438
00.019938 1543
00.078538 1468
00.054686 1055
00.050126 1581
00.002150 1176
00.019147 1381
00.021112 1017
00.022782 595
00.000889 1693
00.021786 279
00.004763 782
00.051673 467
00.045830 828
00.021894 1387
00.005219 655
00.018197 824
00.045330 698
00.003482 443
00.023523 386
00.025244 464
00.086206 1718
00.001306 292
00.003737 1132
00.061079 1006
00.026138 742
00.007194 792
00.001781 628
00.006523 1260
00.007102 1356
00.021956 1173
00.048911 920
00.030162 301
00.111159 991
00.004895 1465
00.002862 679
00.001940 1201
00.002354 413
00.027561 1632
00.000895 1717
00.029231 1323
00.000773 521
00.019933 681
00.004438 1394
00.036077 1418
00.001374 1528
00.036776 1072
00.032990 1171
00.003486 1205
00.073741 933
00.004396 1374
00.021862 487
00.010690 616
00.014907 566
00.043309 1420
00.021835 573
00.007295 597
00.013355 545
00.008763 1109
00.009076 673
00.027902 902
00.017905 999
00.015698 1688
00.028431 1569
00.027810 1499
00.000304 483
00.014057 1622
00.037498 772
00.046990 319
00.050679 1226
00.012986 1024
00.026396 642
00.010136 577
00.053604 1567
00.022437 1048
00.004215 464
00.010406 498
00.018184 419
00.002381 688
00.039444 1637
00.008525 1657
00.058779 1163
00.001026 1424
00.052704 1564
00.008636 1534
00.011678 837
00.001481 1767
00.020234 419
00.016296 785
00.037755 1256
00.012490 296
00.006608 1324
00.005435 897
00.040372 702
00.005729 391
00.000089 1460
00.008056 1351
00.047752 1432
00.002974 1066
00.006193 958
00.000932 1154
00.029224 431
00.008164 1567
00.043032 1250
00.009080 452
00.006298 1573
00.014607 591
00.009906 800
00.033071 1415
00.004399 1578
00.016653 816
00.001201 296
00.032388 1686
00.023153 1233
00.004548 718
00.052844 842
00.023418 630
00.040304 1614
00.005223 598
00.038438 728
00.006165 1343
00.003175 1113
00.013889 1000
00.023927 598
00.010155 964
00.016418 962
00.010924 1216
00.014771 1461
00.013632 1323
00.046246 598
00.052569 1355
00.007774 784
00.034492 945
00.012906 841
00.013059 642
00.023609 512
00.049923 1447
00.028523 1113
00.001512 851
00.025193 666
00.037740 742
00.015231 1102
00.005489 326
00.032083 300
00.097887 965
00.009080 632
00.049207 980
00.064869 295
00.001298 625
00.003291 559
00.027601 1568
00.000294 753
00.029396 475
00.061008 792
00.027961 894
00.022335 559
00.021136 1318
00.022423 1691
00.020646 1029
00.016501 986
00.005962 724
00.026803 975
00.088341 582
00.020655 1090
00.036710 1748
00.027927 545
00.035478 455
00.000569 1065
00.002662 1575
00.011304 791
00.007161 1037
00.057817 1634
00.006729 362
00.009815 490
00.011023 650
00.013104 303
00.002472 1373
00.021790 739
00.017259 1677
00.000518 378
00.004948 386
00.010351 1616
00.017785 862
00.007746 1690
00.028508 1338
00.025701 606
00.007620 494
00.001743 807
00.004891 487
00.055126 1691
00.008185 647
00.004762 1213
00.007797 1268
00.006909 582
00.012803 1661
00.005322 1007
00.000611 1462
00.030767 1214
00.002942 1612
00.020912 965
00.005451 1238
00.042865 1253
00.022364 651
00.019948 1307
00.024351 851
00.017080 1526
00.001735 304
00.008960 664
00.041059 1629
00.009403 599
00.002682 1384
00.038350 1561
00.002525 1118
00.060905 309
00.021861 968
00.006788 452
00.019896 1177
00.063004 1643
00.010544 288
00.005451 1705
00.008729 930
00.062802 1410
00.002830 1282
00.036892 418
00.010161 1492
00.003283 1636
00.052098 1248
00.013944 1474
00.111499 311
00.043322 276
00.008417 816
00.052162 1757
00.030916 313
00.029857 968
00.036870 285
00.027746 1481
00.011260 1640
00.000327 1150
00.005607 1544
00.006288 1692
00.002131 1447
00.044974 1492
00.052761 1412
00.029321 375
00.019049 1528
00.017965 422
00.016845 782
00.112196 1018
00.007822 338
00.001143 435
00.006519 430
00.004004 1719
00.007273 515
00.015494 1593
00.001883 344
00.010129 1341
00.024713 434
00.002759 1268
00.039985 513
00.040656 380
00.001196 329
00.017719 1519
00.012299 660
00.016306 648
00.004395 1200
00.026132 515
00.004520 1719
00.034866 1262
00.048829 716
00.013832 1029
00.016517 1635
00.002725 1728
00.005605 1054
00.068112 658
00.002269 1169
00.009542 347
00.012322 783
00.005554 1188
00.019464 315
00.002029 836
00.001193 889
00.009365 1042
00.018826 1246
00.002091 555
00.016304 1189
00.154790 1475
00.002362 1745
00.011820 1070
00.002827 1441
00.036086 768
00.006643 592
00.022602 604
00.078869 1549
00.001232 274
00.013937 1355
00.008324 1407
00.008025 1393
00.017401 589
00.001507 339
00.024682 457
00.015609 562
00.001347 814
00.001638 1546
00.024401 1466
00.103941 1172
00.035465 553
00.015433 1053
00.022204 1200
00.000769 1583
00.002076 1444
00.015537 874
00.001721 580
00.037770 1387
00.033932 1191
00.032756 1032
00.033327 673
00.026710 1659
00.032000 461
00.002403 731
00.009767 354
00.069976 1578
00.008173 1519
00.043628 486
00.035655 782
00.010894 460
00.003084 1457
00.023698 673
00.040496 544
00.003716 493
00.024609 1335
00.024429 555
00.027846 1690
00.018501 1452
00.001126 1350
00.033537 661
00.029130 651
00.027490 977
00.017955 791
00.056155 1178
00.000503 1243
00.006762 905
00.005678 790
00.004945 384
00.057966 639
00.014216 460
00.013146 760
00.012369 1437
00.020912 1125
00.027952 671
00.000239 1425
00.032521 1198
00.030073 371
00.004422 1384
00.004984 1042
00.025302 914
00.000243 643
00.000872 919
00.009705 708
00.011002 883
00.064208 505
00.088395 1221
00.031854 1635
00.041682 572
00.027348 1391
00.039237 1719
00.011713 1276
00.010097 1382
00.001281 1071
00.007876 353
00.013637 1101
00.013557 948
00.042270 513
00.024323 1480
00.040298 1575
00.000203 1122
00.024000 457
00.001850 647
00.072024 872
00.017633 565
00.005717 502
00.030648 914
00.027492 735
00.035878 1212
00.002489 999
00.010222 1023
00.009288 1353
00.015511 616
00.051855 341
00.008800 861
00.002474 1418
00.014017 640
00.002393 903
00.072336 1450
00.000205 1657
00.040997 750
00.027917 1028
00.027577 1659
00.124666 1471
00.006877 354
00.060292 449
00.026225 1659
00.000629 1372
00.010489 474
00.004538 1245
00.001412 1660
00.087802 609
00.019905 565
00.015972 1634
00.048855 444
00.014617 891
00.005341 1266
00.023633 395
00.010612 1117
00.031381 974
00.004739 991
00.126847 1354
00.045880 1352
00.001305 754
00.058187 931
00.013005 751
00.020177 455
00.022309 1218
00.005339 1468
00.004924 1357
00.007676 496
00.002920 700
00.013042 1660
00.019814 1343
00.029738 1731
00.028093 1545
00.025414 1149
00.003435 799
00.011170 853
00.007599 696
00.011495 1390
00.006824 827
00.028700 755
00.004350 1005
00.021400 1348
00.001627 446
00.033049 1743
00.035578 855
00.003099 1238
00.005945 1362
00.007817 723
00.026580 1553
00.016014 1311
00.022870 1354
00.010851 444
00.014379 1490
00.006568 383
00.012706 544
00.018499 836
00.032685 1476
00.022146 937
00.005765 1434
00.013934 1194
00.000446 1481
00.068754 851
00.029960 970
00.012722 481
00.005239 1323
00.018815 856
00.035354 732
00.029081 653
00.005005 360
00.059216 1058
00.003494 281
00.031512 1055
00.016486 1581
00.012500 894
00.007281 407
00.011848 1603
00.004231 1434
00.010103 305
00.027309 1183
00.001525 1397
00.021912 1408
00.001762 621
00.012702 1063
00.000292 1102
00.001806 776
00.017936 606
00.002072 646
00.021141 1548
00.040118 1411
00.019907 1284
00.037532 1691
00.014158 1037
00.008820 1315
00.003049 1593
00.000035 330
00.008064 415
00.000405 1407
00.047396 1685
00.001238 880
00.038584 1067
00.007782 373
00.000548 1191
00.028742 1629
00.002613 438
00.022338 863
00.018283 377
00.043148 1294
00.000621 571
00.070838 1061
00.020540 327
00.000376 1401
00.015469 1363
00.057091 1327
00.000296 1495
00.045454 664
00.028823 772
00.011848 1229
00.054085 1029
00.033437 898
00.006021 674
00.032823 713
00.001841 496
00.018197 701
00.035551 1209
00.008859 764
00.003360 783
00.041977 1115
00.029191 800
00.017768 1494
00.023512 348
00.008403 785
00.015382 872
00.016039 926
00.023355 1530
00.007209 1479
00.002595 1277
00.071871 961
00.013546 1145
00.018501 360
00.028253 1521
00.028470 1546
00.004616 1747
00.010500 1144
00.111020 614
00.005976 1717
00.033985 410
00.039214 778
00.020906 365
00.065315 752
00.011487 1077
00.004525 1586
00.007309 1103
00.009589 791
00.035875 922
00.018673 487
00.006758 849
00.001969 1192
00.003385 1445
00.068768 291
00.021866 1085
00.024733 606
00.008439 767
00.010031 412
00.079319 1758
00.010917 1726
00.028676 1206
00.002162 721
00.010574 1305
00.034725 470
00.017852 1538
00.018904 1378
00.008435 1340
00.055982 716
00.047744 369
00.063254 751
00.036771 751
00.028560 1411
00.009766 558
00.003755 844
00.032574 1042
00.028026 1219
00.009060 533
00.017838 463
00.002723 1129
00.041811 1276
00.005847 1166
00.048692 610
00.006020 449
00.003875 1732
00.006486 557
00.021107 1324
00.010596 981
00.010844 1175
00.000229 1534
00.011849 285
00.017272 1214
00.006426 918
00.007493 463
00.030492 1330
 
